…
Viso atvejų

    ## # A tibble: 23 x 5
    ##    day        `2020-03-23` `2020-03-24` `2020-03-25` historic
    ##    <date>            <dbl>        <dbl>        <dbl>    <int>
    ##  1 2020-03-13            6            6            6        6
    ##  2 2020-03-14            8            8            8        7
    ##  3 2020-03-15           11           11           11       12
    ##  4 2020-03-16           16           16           16       17
    ##  5 2020-03-17           23           24           23       26
    ##  6 2020-03-18           34           35           34       34
    ##  7 2020-03-19           50           51           51       48
    ##  8 2020-03-20           73           72           75       69
    ##  9 2020-03-21          104          101          108      105
    ## 10 2020-03-22          143          139          150      143
    ## # … with 13 more rows
…
