…
Viso atvejų

    ## # A tibble: 27 x 5
    ##    day        `2020-03-25` `2020-03-26` `2020-03-27` historic
    ##    <date>            <dbl>        <dbl>        <dbl>    <int>
    ##  1 2020-03-11            2            2            2        3
    ##  2 2020-03-12            4            4            5        3
    ##  3 2020-03-13            7            7            9        6
    ##  4 2020-03-14           12           12           15        7
    ##  5 2020-03-15           19           19           24       12
    ##  6 2020-03-16           28           29           35       17
    ##  7 2020-03-17           40           41           49       26
    ##  8 2020-03-18           55           57           66       34
    ##  9 2020-03-19           74           76           87       48
    ## 10 2020-03-20           97          100          111       69
    ## # … with 17 more rows
…
